…
=== ACCOUNT PERFORMANCE BY SENTIMENT ===
How do top accounts perform in different market conditions?

# A tibble: 24 × 6
   Account classification num_trades total_pnl avg_pnl win_rate
     <dbl> <chr>               <int>     <dbl>   <dbl>    <dbl>
 1 4.68e46 Fear                 1778  1113374.   626.      89.1
 2 4.68e46 Greed                 574   276719.   482.      60.1
 3 4.68e46 Neutral               421   125650.   298.     100  
 4 4.68e46 Extreme Fear          100   124769.  1248.     100  
 5 4.68e46 Extreme Greed         945   -40282.   -42.6     25.6
 6 4.64e47 Neutral              2517   381330.   152.      96.7
 7 4.64e47 Fear                 5981   367166.    61.4     86.0
 8 4.64e47 Greed                3169   163048.    51.5     91.3
 9 4.64e47 Extreme Greed         223        0      0      NaN  
10 4.64e47 Extreme Fear          346   -71122.  -206.      66.9
# ℹ 14 more rows
…
=== TOP COINS: PERFORMANCE CONSISTENCY ACROSS SENTIMENTS ===
# A tibble: 50 × 6
   Coin  classification num_trades total_pnl avg_pnl win_rate
   <chr> <chr>               <int>     <dbl>   <dbl>    <dbl>
 1 @107  Extreme Greed        6341  1988619.  314.       92.1
 2 @107  Greed                5038   724342.  144.       76.5
 3 @107  Neutral              1932   219552.  114.       87.4
 4 @107  Fear                 2969   -12515.   -4.22     76.2
 5 @107  Extreme Fear          886  -136085. -154.       42.4
 6 BTC   Fear                 4342   482650.  111.       87.6
 7 BTC   Neutral              1812   165980.   91.6      86.3
 8 BTC   Greed                3209   115475.   36.0      74.9
 9 BTC   Extreme Greed         979   100883.  103.       84.6
10 BTC   Extreme Fear          667     3057.    4.58     81.4
# ℹ 40 more rows
…
